{
  "project_info": {
    "project_number": "57046350692",
    "firebase_url": "https://rondakeliling-10faf.firebaseio.com",
    "project_id": "rondakeliling-10faf",
    "storage_bucket": "rondakeliling-10faf.appspot.com"
  },
  "client": [
    {
      "client_info": {
        "mobilesdk_app_id": "1:57046350692:android:48d393817b8f07b9",
        "android_client_info": {
          "package_name": "com.sampulkreativ.rondakeliling"
        }
      },
      "oauth_client": [
        {
          "client_id": "57046350692-300gvc5mp2c47kmtfl0a70rhp6ftkakk.apps.googleusercontent.com",
          "client_type": 1,
          "android_info": {
            "package_name": "com.sampulkreativ.rondakeliling",
            "certificate_hash": "93b2919a334bab99c9d05cf2a91c981f8b07f338"
          }
        },
        {
          "client_id": "57046350692-22pu6n6o6n0uto5s2uknm2fk048d1pcq.apps.googleusercontent.com",
          "client_type": 3
        }
      ],
      "api_key": [
        {
          "current_key": "AIzaSyA-w9V8YGC3YiuoKruNSaTsDMImNNDFolE"
        }
      ],
      "services": {
        "analytics_service": {
          "status": 1
        },
        "appinvite_service": {
          "status": 2,
          "other_platform_oauth_client": [
            {
              "client_id": "57046350692-22pu6n6o6n0uto5s2uknm2fk048d1pcq.apps.googleusercontent.com",
              "client_type": 3
            }
          ]
        },
        "ads_service": {
          "status": 2
        }
      }
    }
  ],
  "configuration_version": "1"
}